<?xml version="1.0" encoding="UTF-8" standalone="no"?>
<!DOCTYPE svg PUBLIC "-//W3C//DTD SVG 1.1//EN"
 "http://www.w3.org/Graphics/SVG/1.1/DTD/svg11.dtd">
<!-- Generated by graphviz version 2.40.1 (20161225.0304)
 -->
<!-- Title: G Pages: 1 -->
<svg width="488pt" height="260pt"
 viewBox="0.00 0.00 488.38 260.00" xmlns="http://www.w3.org/2000/svg" xmlns:xlink="http://www.w3.org/1999/xlink">
<g id="graph0" class="graph" transform="scale(1 1) rotate(0) translate(4 256)">
<title>G</title>
<polygon fill="#ffffff" stroke="transparent" points="-4,4 -4,-256 484.3795,-256 484.3795,4 -4,4"/>
<!-- sine_city -->
<g id="node1" class="node">
<title>sine_city</title>
<ellipse fill="none" stroke="#000000" cx="246.1892" cy="-234" rx="51.9908" ry="18"/>
<text text-anchor="middle" x="246.1892" y="-230.3" font-family="Times,serif" font-size="14.00" fill="#000000">sine_city</text>
</g>
<!-- War_Hamming_Window -->
<g id="node2" class="node">
<title>War_Hamming_Window</title>
<ellipse fill="none" stroke="#000000" cx="122.1892" cy="-162" rx="122.3786" ry="18"/>
<text text-anchor="middle" x="122.1892" y="-158.3" font-family="Times,serif" font-size="14.00" fill="#000000">War_Hamming_Window</text>
</g>
<!-- sine_city&#45;&gt;War_Hamming_Window -->
<g id="edge1" class="edge">
<title>sine_city&#45;&gt;War_Hamming_Window</title>
<path fill="none" stroke="#000000" d="M219.283,-218.3771C202.3115,-208.5227 180.1089,-195.6308 161.2194,-184.6627"/>
<polygon fill="#000000" stroke="#000000" points="162.9333,-181.6107 152.5279,-179.6161 159.4183,-187.6642 162.9333,-181.6107"/>
</g>
<!-- Shaped_Heart_Tones -->
<g id="node4" class="node">
<title>Shaped_Heart_Tones</title>
<ellipse fill="none" stroke="#000000" cx="371.1892" cy="-162" rx="109.381" ry="18"/>
<text text-anchor="middle" x="371.1892" y="-158.3" font-family="Times,serif" font-size="14.00" fill="#000000">Shaped_Heart_Tones</text>
</g>
<!-- sine_city&#45;&gt;Shaped_Heart_Tones -->
<g id="edge3" class="edge">
<title>sine_city&#45;&gt;Shaped_Heart_Tones</title>
<path fill="none" stroke="#000000" d="M273.0048,-218.5542C290.221,-208.6377 312.8699,-195.5919 332.0758,-184.5293"/>
<polygon fill="#000000" stroke="#000000" points="333.9881,-187.467 340.9065,-179.4428 330.4942,-181.4012 333.9881,-187.467"/>
</g>
<!-- Guitar_Hero -->
<g id="node3" class="node">
<title>Guitar_Hero</title>
<ellipse fill="none" stroke="#000000" cx="246.1892" cy="-90" rx="68.7879" ry="18"/>
<text text-anchor="middle" x="246.1892" y="-86.3" font-family="Times,serif" font-size="14.00" fill="#000000">Guitar_Hero</text>
</g>
<!-- War_Hamming_Window&#45;&gt;Guitar_Hero -->
<g id="edge2" class="edge">
<title>War_Hamming_Window&#45;&gt;Guitar_Hero</title>
<path fill="none" stroke="#000000" d="M152.523,-144.3868C169.4967,-134.5311 190.7987,-122.1622 208.7977,-111.7111"/>
<polygon fill="#000000" stroke="#000000" points="210.9782,-114.4924 217.8686,-106.4442 207.4632,-108.4388 210.9782,-114.4924"/>
</g>
<!-- Garage_Band -->
<g id="node5" class="node">
<title>Garage_Band</title>
<ellipse fill="none" stroke="#000000" cx="246.1892" cy="-18" rx="73.387" ry="18"/>
<text text-anchor="middle" x="246.1892" y="-14.3" font-family="Times,serif" font-size="14.00" fill="#000000">Garage_Band</text>
</g>
<!-- Guitar_Hero&#45;&gt;Garage_Band -->
<g id="edge5" class="edge">
<title>Guitar_Hero&#45;&gt;Garage_Band</title>
<path fill="none" stroke="#000000" d="M246.1892,-71.8314C246.1892,-64.131 246.1892,-54.9743 246.1892,-46.4166"/>
<polygon fill="#000000" stroke="#000000" points="249.6893,-46.4132 246.1892,-36.4133 242.6893,-46.4133 249.6893,-46.4132"/>
</g>
<!-- Shaped_Heart_Tones&#45;&gt;Guitar_Hero -->
<g id="edge4" class="edge">
<title>Shaped_Heart_Tones&#45;&gt;Guitar_Hero</title>
<path fill="none" stroke="#000000" d="M340.9301,-144.5708C323.6682,-134.6279 301.8878,-122.0824 283.564,-111.5279"/>
<polygon fill="#000000" stroke="#000000" points="285.2937,-108.4851 274.8814,-106.5267 281.7998,-114.5509 285.2937,-108.4851"/>
</g>
</g>
</svg>
